<?xml version="1.0" encoding="UTF-8"?>
<svg width="102px" height="57px" viewBox="0 0 102 57" version="1.1" xmlns="http://www.w3.org/2000/svg" xmlns:xlink="http://www.w3.org/1999/xlink">
    <!-- Generator: Sketch 53.2 (72643) - https://sketchapp.com -->
    <title>Group 5 Copy 2</title>
    <desc>Created with Sketch.</desc>
    <g id="Bouton-rubrique-&quot;En-un-graphique&quot;-√" stroke="none" stroke-width="1" fill="none" fill-rule="evenodd">
        <g id="Artboard" transform="translate(-112.000000, -475.000000)">
            <g id="Group-5-Copy-2" transform="translate(112.000000, 477.000000)">
                <g id="Group-6" transform="translate(-0.000000, 0.000000)">
                    <g id="Group-7" transform="translate(0.126551, 0.000000)">
                        <g id="Group-3">
                            <polygon id="Path-2-Copy" fill="#0386C3" fill-rule="nonzero" points="85.4119124 28.2172164 90.3349846 33.1934962 68.6681001 54.6287129 58.4119124 44.4821869 63.3349846 39.5059071 68.6681001 44.7819997"></polygon>
                            <polygon id="Line" fill="#FE2F2F" fill-rule="nonzero" transform="translate(10.686724, 44.499224) scale(-1, 1) rotate(0.000000) translate(-10.686724, -44.499224) " points="0.343145751 39.8125 6 34.1556458 21.0303028 49.1859485 15.3734485 54.8428028"></polygon>
                            <path d="M33.8734485,49.5 C19.7901874,49.5 8.3734485,38.0832611 8.3734485,24 C8.3734485,9.91673888 19.7901874,-1.5 33.8734485,-1.5 C47.9567096,-1.5 59.3734485,9.91673888 59.3734485,24 C59.3734485,38.0832611 47.9567096,49.5 33.8734485,49.5 Z M33.8734485,42.5 C44.0907164,42.5 52.3734485,34.2172679 52.3734485,24 C52.3734485,13.7827321 44.0907164,5.5 33.8734485,5.5 C23.6561806,5.5 15.3734485,13.7827321 15.3734485,24 C15.3734485,34.2172679 23.6561806,42.5 33.8734485,42.5 Z" id="Oval" fill="#FDCF30" fill-rule="nonzero" transform="translate(33.873449, 24.000000) scale(-1, 1) translate(-33.873449, -24.000000) "></path>
                            <path d="M68.8734485,33 L68.8734485,5.27999937 C68.8734485,2.36393624 71.2373847,1.42385053e-15 74.1534479,8.8817842e-16 L101.873449,0 L101.873449,18.2000006 C101.873449,20.8509671 99.7244156,23 97.0734491,23 C91.3401156,23 85.606782,23 79.8734485,23 C79.7758371,23 76.1091704,26.3333333 68.8734485,33 Z" id="Path-3" fill="#000000"></path>
                            <ellipse id="Oval-2" fill="#FFFFFF" cx="79.5628424" cy="11.8125" rx="2.15909091" ry="2.16964286"></ellipse>
                            <ellipse id="Oval-2" fill="#FFFFFF" cx="85.8002162" cy="11.8125" rx="2.15909091" ry="2.16964286"></ellipse>
                            <ellipse id="Oval-2" fill="#FFFFFF" cx="92.0375899" cy="11.8125" rx="2.15909091" ry="2.16964286"></ellipse>
                        </g>
                    </g>
                </g>
                <g id="Group-4-Copy" transform="translate(33.000000, 26.000000) scale(-1, 1) translate(-33.000000, -26.000000) translate(8.000000, 2.000000)"></g>
                <g id="Group-13-Copy-3" transform="translate(71.000000, 0.000000)">
                    <g id="logo-un-graphique"></g>
                </g>
            </g>
        </g>
    </g>
</svg>